…
boot_straps
```

    ## # A tibble: 2,000 × 6
    ##    .id   term        estimate std.error statistic   p.value
    ##    <chr> <chr>          <dbl>     <dbl>     <dbl>     <dbl>
    ##  1 0001  (Intercept)     1.90    0.101       18.8 1.05e- 49
    ##  2 0001  x               3.11    0.0774      40.2 1.27e-110
    ##  3 0002  (Intercept)     1.87    0.0944      19.8 5.17e- 53
    ##  4 0002  x               3.24    0.0667      48.6 1.13e-128
    ##  5 0003  (Intercept)     2.01    0.115       17.5 2.87e- 45
    ##  6 0003  x               2.96    0.0776      38.1 1.38e-105
    ##  7 0004  (Intercept)     1.91    0.114       16.7 1.31e- 42
    ##  8 0004  x               3.12    0.0818      38.1 1.03e-105
    ##  9 0005  (Intercept)     1.92    0.109       17.7 8.68e- 46
    ## 10 0005  x               3.05    0.0748      40.8 4.45e-112
    ## # ℹ 1,990 more rows
…
